{
	"active-text-font-color":{
		"gchararray":"#FFFFFFFF"
	},
	"normal-text-font-color":{
		"gchararray":"#98A9B3FF"
	},
	"text-font":{
                "gchararray":"DejaVuSansCondensed 22px"
        },
        "text-image-space":{
                "gfloat": 10.0
        },
        "arrow-margin":{
                "gfloat": 5.0
        },
        "markup-arrow-right":{
                "gchararray":"&#x25C2;"
        },
        "markup-arrow-left":{
                "gchararray":"&#x25B8;"
        },
	"markup-arrow-font":{
		"gchararray":"DejaVuSansCondensed 10px"
	}
}
