{
	"1":{
		"loading-bar-width":{
			"gfloat": 45.0
		}
	},
	"2":{
		"loading-bar-height":{
			"gfloat": 10.0
		}
	},
	"3":{
		"loading-bar-show":{
        		"gboolean": true
		}
        },
        "4":{
		"loading-bar-pos":{
		        "gfloat": 0.0
		}
        }
}	
