{
	"name":{
		"gchar":"BKSP"
	},
	"width":{
		"gfloat":58.0
	},
	"height":{
		"gfloat":58.0
	},
	"normal-image":{
		"gchararray":"bt_bg_key_standardend_IN.png"
	},
	"pressed-image":{
		"gchararray":"bt_bg_key_standardend_AC.png"
	},
	"type":{
		"gchar":"text"
	},
	"x":{
		"gfloat":590.0
	},
	"y":{
		"gfloat":0.0
	},
	"default-text":{
		"gchar":"←"
	},
    "shift-text":{
		"gchar":"←"
	},
	"symbol-text":{
		"gchar":"←"
	},
    "font-type":{
        "gchararray":"DejaVuSansCondensed 24px"
    },
    "long-press-enabled":{
        "gboolean":true
    }
}
