{
	"1":{
		"width":{
			"gfloat":300.0
		}
	},
	"2":{
		"height":{
        	        "gfloat":380.0
		}
        },
	"3":{
		"roller-type":{
			"gint": 0
		}
	},
	"4":{
		"item-type":{
			"GType":"MildenhallSampleItem"
		}
	},
	"5":{
		 "roll-over":{
        	        "gboolean":true
		}
        },
	"6":{
	        "reactive":{
        	        "gboolean":true
		}
        },
	"7":{
	        "show-flow-layout":{
        	        "gboolean":false
		}
        },
	"8":{
	        "cylinder-distort":{
        	        "gboolean":false
		}
        },
	"9":{
	        "motion-blur":{
        	        "gboolean":false
		}
        }

}	
