{
	"2":{
		"width":{
			"gfloat":375.0
		}
	},
	"3":{
		"play-state":{
			"gboolean":true
		}
	},
	"4":{
		"reactive":{
        		"gboolean":true
		}
        },
	"5":{
		"current-duration":{
        		"gdouble":0.0
		}
	},
	"6":{
		"buffer-fill":{
			"gdouble":0.0
		}
        },
	"7":{
		"offset":{
			"gdouble":20.0
		}
	},
	"1":{
		"seek-button-size":{
			"gfloat":46.0
		}
	}
}	
