{
	"name":{
		"gchar":"1"
	},
	"width":{
		"gfloat":59.0
	},
	"height":{
		"gfloat":62.0
	},
	"normal-image":{
		"gchararray":"bt_bg_key_normal.png"
	},
	"pressed-image":{
		"gchararray":"bt_bg_key_pressed.png"
	},
	"x":{
		"gfloat":0.0
	},
	"y":{
		"gfloat":0.0
	},
	"default-text":{
		"gchar":"1"
	},
    "long-press-enabled":{
        "gboolean":true
    }
}
