{
	"0":{
		"gchararray":"ebay_0.json"
	},
	"1":{
		"gchararray":"ebay_1.json"
	},
	"2":{
		"gchararray":"ebay_2.json"
	},
	"3":{
		"gchararray":"ebay_3.json"
	},
	"4":{
		"gchararray":"ebay_4.json"
	},
	"5":{
		"gchararray":"ebay_5.json"
	},
	"6":{
		"gchararray":"ebay_6.json"
	},
	"7":{
		"gchararray":"ebay_7.json"
	},
	"8":{
		"gchararray":"ebay_8.json"
	},
	"9":{
		"gchararray":"ebay_9.json"
	},
	"dot":{
		"gchararray":"ebay_dot.json"
	},
	"cancel":{
		"gchararray":"ebay_cancel.json"
	},
	"bksp":{
		"gchararray":"ebay_bksp.json"
	},
	"go":{
		"gchararray":"ebay_go.json"
	}	
}
