{
	"name":{
		"gchar":"RETURN"
	},
	"width":{
		"gfloat":77.0
	},
	"height":{
		"gfloat":58.0
	},
	"normal-image":{
		"gchararray":"bt_bg_key_return_IN.png"
	},
	"pressed-image":{
		"gchararray":"bt_bg_key_return_AC.png"
	},
	"type":{
		"gchar":"text"
	},
	"x":{
		"gfloat":571.0
	},
	"y":{
		"gfloat":58.0
	},
	"default-text":{
		"gchar":"RETURN"
	},
    "shift-text":{
		"gchar":"RETURN"
	},
	"symbol-text":{
		"gchar":"RETURN"
	},
    "long-press-enabled":{
        "gboolean":true
    }
}
