{
	"name":{
		"gchar":"SHIFT"
	},
	"width":{
		"gfloat":118.0
	},
	"height":{
		"gfloat":58.0
	},
	"normal-image":{
		"gchararray":"bt_bg_key_shift_IN.png"
	},
	"pressed-image":{
		"gchararray":"bt_bg_key_shift_AC.png"
	},
	"type":{
		"gchar":"text"
	},
	"x":{
		"gfloat":0.0
	},
	"y":{
		"gfloat":116.0
	},
	"default-text":{
		"gchar":""
	},
    "long-press-enabled":{
        "gboolean":true
    }
}
