{
       	"column-one-x": {
                "gint":15
        },

       "column-one-y": {
                "gint":25
        },
        "column-one-width": {
                "gint":36
        },
        "column-one-height": {
                "gint":36
        },

        "column-two-x": {
                "gint":70
        },
        "column-two-y": {
                "gint":25
        },

        "column-two-width": {
                "gint":36
        },

        "column-two-height": {
                "gint":36
        },
        "column-three-x": {
                "gint":125
        },
        "column-three-y": {
                "gint":25
        },

        "column-three-width": {
                "gint":36
        },

        "column-three-height": {
                "gint":36
        },
        "column-four-x": {
                "gint":170
        },
        "column-four-y": {
                "gint":25
        },

        "column-four-width": {
                "gint":36
        },

        "column-four-height": {
                "gint":36
        }, 
                  
        "between-line-one-x": {
                "gint":60
        },
        "between-line-one-y": {
                "gint":25
        },

        "between-line-one-width": {
                "gint":1
        },

        "between-line-one-height": {
                "gint":36
        }, 
        
        "between-line-two-x": {
                "gint":115
        },
        
        "between-line-two-y": {
                "gint":25
        },

        "between-line-two-width": {
                "gint":1
        },
        
        "between-line-two-height": {
                "gint":36
        }, 
        
         "column-four-font":{
                "gchararray":"DejaVuSansCondensed 28px"
              }
}
