{
	"1":{
		"width":{
			"gfloat": 598.0
		}
	},
	"2":{
		"height":{
			"gfloat": 86.0
		}
	},
	"3":{
		"x":{
        		"gfloat": 0.0
		}
    },
    "4":{
		"y":{
		        "gfloat": 394.0
		}
    },
    "5":{
		"left-text-font":{
        		"gchararray": "DejaVuSansCondensed 24px"
		}
    },
    "6":{
		"left-text-color":{
		        "gchararray": "#98A9B3FF"
		}
    },
    "7":{
		"right-text-font":{
        		"gchararray": "DejaVuSansCondensed 24px"
		}
    },
    "8":{
		"right-text-color":{
		        "gchararray": "#98A9B3FF"
		}
    },
    "9":{
		"middle-text-font":{
        		"gchararray": "DejaVuSansCondensed 24px"
		}
    },
    "10":{
		"middle-text-color":{
		        "gchararray": "#98A9B3FF"
		}
    },
    "11":{
		"background":{
		        "gchararray": "#00000033"
		}
    }
}	
