{
	"1":{
		"bottom-bar-width":{
			"gfloat": 277.0
		}
	},
	"2":{
		"bottom-bar-height":{
			"gfloat": 84.0
		}
	},
	"3":{
		"column-one":{
        		"gboolean": true
		}
        },
        "4":{
		"column-two":{
		        "gboolean": true
		}
        },
	"5":{
		"column-three":{
		        "gboolean": true
		}
        },
	"6":{
    		"column-four":{
		    	"gboolean": true
		}
    	}
}	
