{
	"1":{
		"x":{
			"gfloat": 0.0
		}
	},
	"2":{
		"y":{
			"gfloat": 0.0
		}
	},
	"3":{
		"width":{
			"gfloat": 64.0
		}
	},
	"4":{
		"height":{
			"gfloat": 64.0
		}
	},
	"5":{
		"current-state":{
			"gboolean":false
		}
	},
	"6":{
		"reactive":{
        	        "gboolean":true
        	}
        },
        "7":{
        	"highlight":{
        		"gboolean":false
        	}
        }
}			



