{
        "markup-false":{
                "gchararray":"&#x25CB;"
        }, 
        "markup-true":{
                "gchararray":"&#x25CF;"
        }, 
	"markup-font":{
		"gchararray":"DejaVuSansCondensed 20px"
	},
	"markup-font-color-normal":{
		"gchararray":"#98A9B3FF"
	},
	"markup-font-color-active":{
		"gchararray":"#FFFFFFFF"
	}
	
}
