 {
	"1":{
		"x":{
			"gfloat": 0.0
		}
	},
	"2":{
		"y":{
			"gfloat": 0.0
		}
	},
	"3":{
		"width":{
			"gfloat": 60.0
		}
	},
	"4":{
		"height":{
			"gfloat": 64.0
		}
	},
	"5":{
		"reactive":{
                	"gboolean":false
        	}
	},
	"6":{
		"display-type":{
			"guint": 3
		}
	},
	"7":{
		"current-state":{
			"guint":0
		}
	},
	"8":{
	        "highlight":{
        		"gboolean":false
        	}
	},
	"9":{
	        "alignment-type":{
        		"guint": 2
        	}
	}
}


