{
    "1":{
            "width":{
            "gfloat": 527.0
        }
	},
	"2":{
            "height":{
            "gfloat": 57.0
        }
	},
	"3":{
            "multi-line":{
        	"gboolean":false
        }
   	 },
    	"4":{
            "max-lines":{
        	"gint":4
        }
	},
	"5":{
            "displayed-lines":{
            "gint":0
        }
    },
    "6":{
            "reactive":{
        	"gboolean":true
        }
    },
    "7":{
            "font-type":{
            "gchararray":"DejaVuSansCondensed 24px"
        }
    },
    "8":{
            "text":{
            "gchararray":""
        }
    }
}
