 {
	"1":{
		"layout":{
			"gchar":"ac_speller_style.json"
		}
	},
    "2":{
		"entry":{
			"gint":6
		}
	},
    "3":{
		"y-offset":{
			"gfloat":0.0
		}
	},
	"4":{
		"shown":{
			"gboolean":false
		}
	},
	"5":{
		"hidden":{
			"gboolean":true
		}
	}
}


