{
	"name":{
		"gchar":"4"
	},
	"width":{
		"gfloat":196.0
	},
	"height":{
		"gfloat":64.0
	},
	"normal-image":{
		"gchararray":"dial_pad_4.png"
	},
	"pressed-image":{
		"gchararray":"dial_pad_4_pressed.png"
	},
	"x":{
		"gfloat":0.0
	},
	"y":{
		"gfloat":67.0
	},
	"default-text":{
		"gchar":""
	},
	"shift-text":{
		"gchar":"1"
	},
	"symbol-text":{
		"gchar":","
	},
    "long-press-enabled":{
        "gboolean":true
    }
}
