{
	"name":{
		"gchar":"#"
	},
	"width":{
		"gfloat":195.0
	},
	"height":{
		"gfloat":65.0
	},
	"normal-image":{
		"gchararray":"dial_pad_hash.png"
	},
	"pressed-image":{
		"gchararray":"dial_pad_hash_pressed.png"
	},
	"x":{
		"gfloat":393.0
	},
	"y":{
		"gfloat":197.0
	},
	"default-text":{
		"gchar":""
	},
	"shift-text":{
		"gchar":"D"
	},
	"symbol-text":{
		"gchar":"”"
	},
    "long-press-enabled":{
        "gboolean":true
    }
}
