{
	"1":{
		"x":{
			"gfloat": 281.0
		}
	},
	"2":{
		"y":{
			"gfloat": 50.0
		}
	},
	"3":{
		"left-icon":{
        	        "gboolean":true
		}
        },
	"4":{
		"right-icon":{
        	        "gboolean":false
		}
	}

}	
